[
  {"email": "Whistler1@mymoto-xe.com", "userRole": "WHISTLER", "password":"1111"},
  {"email": "Whistler2@mymoto-xe.com", "userRole": "WHISTLER", "password":"1111"},
  {"email": "enforcer1@mymoto-xe.com", "userRole": "AGENT", "password":"1111"},
  {"email": "enforcer2@mymoto-xe.com", "userRole": "AGENT", "password":"1111"}
]